graph RL
    %% linkStyle default interpolate basis

    subgraph parameter_estimation
        vis_param_est(Visualization) --> param_est(Parameter estimation)
    end

    subgraph likelihood_builder
        vis_like_fun(Visualization) --> like_fun(Likelihood utilities)
        meas(Measurement points) --> like_fun
    end

    subgraph surrogating
        vis_surrogate(Visualization) --> surrogate(Surrogating)
    end

    subgraph reliability_analysis
        vis_reli(Visualization) --> reli(Reliability)
    end

    param_est -.- user((User))
    like_fun -.- user
    surrogate -.- user
    reli -.- user

    click param_est "https://gitlab.com/tno-bim/taralli/-/tree/master/taralli%2Fparameter_estimation"
    click like_fun "https://gitlab.com/tno-bim/taralli/-/tree/master/taralli%2Floglikelihood_builder"
    click surrogate "https://gitlab.com/tno-bim/taralli/-/tree/master/taralli%2surrogating"
    click reli "https://gitlab.com/tno-bim/taralli/-/tree/master/taralli%2Freliability_analysis"

    style parameter_estimation fill:#fff3eb, stroke:#ff6600
	style param_est fill:#fff, stroke:#ff6600
    style vis_param_est fill:#fff, stroke:#ff6600, stroke-dasharray: 5, 5

    style likelihood_builder fill:#fffbeb, stroke:#ffcc00
	style like_fun fill:#fff, stroke:#ffcc00
    style vis_like_fun fill:#fff, stroke:#ffcc00, stroke-dasharray: 5, 5
	style meas fill:#fff, stroke:#ffcc00, stroke-dasharray: 5, 5

    style surrogating fill:#e0ffe0, stroke:#00cc00
    style surrogate fill:#fff, stroke:#00cc00
    style vis_surrogate fill:#fff, stroke:#00cc00, stroke-dasharray: 5, 5

    style reliability_analysis fill:#ebf3ff, stroke:#0066ff
    style reli fill:#fff, stroke:#0066ff
    style vis_reli fill:#fff, stroke:#0066ff, stroke-dasharray: 5, 5
